build/Lab3_tb.vcd
$date
	Wed Jul  9 21:38:04 2025
$end
$version
	Icarus Verilog
$end
$timescale
	1ps
$end
$scope module Lab3_tb $end
$var wire 4 ! an_tb [3:0] $end
$var wire 7 " SSeg_tb [6:0] $end
$var reg 8 # A_tb [7:0] $end
$var reg 8 $ B_tb [7:0] $end
$var reg 1 % Sel_tb $end
$var reg 1 & clk_tb $end
$scope module uut $end
$var wire 8 ' A [7:0] $end
$var wire 8 ( B [7:0] $end
$var wire 1 % Sel $end
$var wire 1 ) Sel_real $end
$var wire 1 & clk $end
$var wire 9 * resultado [8:0] $end
$var wire 4 + an [3:0] $end
$var wire 7 , SSeg [6:0] $end
$scope module alu $end
$var wire 8 - A [7:0] $end
$var wire 8 . B [7:0] $end
$var wire 1 ) Sel $end
$var wire 9 / resultado [8:0] $end
$scope module alu $end
$var wire 8 0 A [7:0] $end
$var wire 8 1 B [7:0] $end
$var wire 1 ) Sel $end
$var wire 9 2 resultado [8:0] $end
$var reg 9 3 tmp [8:0] $end
$upscope $end
$upscope $end
$scope module visor $end
$var wire 1 & clk $end
$var wire 9 4 resultado [8:0] $end
$var wire 1 5 signo $end
$var wire 2 6 sel_disp [1:0] $end
$var wire 9 7 mag [8:0] $end
$var wire 1 8 clk_div $end
$var wire 4 9 an [3:0] $end
$var wire 7 : SSeg [6:0] $end
$var wire 4 ; BCD2 [3:0] $end
$var wire 4 < BCD1 [3:0] $end
$var wire 4 = BCD0 [3:0] $end
$var reg 4 > bcd [3:0] $end
$scope module conversor $end
$var wire 9 ? bin [8:0] $end
$var reg 4 @ BCD0 [3:0] $end
$var reg 4 A BCD1 [3:0] $end
$var reg 4 B BCD2 [3:0] $end
$var reg 20 C shift_reg [19:0] $end
$var integer 32 D i [31:0] $end
$upscope $end
$scope module div_clk $end
$var wire 1 & clk $end
$var reg 1 8 clk_out $end
$var reg 20 E count [19:0] $end
$upscope $end
$scope module seg $end
$var wire 4 F BCD [3:0] $end
$var reg 7 G SSeg [6:0] $end
$upscope $end
$scope module seleccion $end
$var wire 1 8 clk $end
$var reg 4 H an [3:0] $end
$var reg 2 I sel [1:0] $end
$upscope $end
$upscope $end
$upscope $end
$upscope $end
$enddefinitions $end
$comment Show the parameter values. $end
$dumpall
$end
#0
$dumpvars
bx I
bx H
bx G
bx F
b0 E
b1001 D
b1010001000000000000 C
b101 B
b1 A
b0 @
b11111111 ?
bx >
b0 =
b1 <
b101 ;
bx :
bx 9
x8
b11111111 7
bx 6
05
b11111111 4
b11111111 3
b11111111 2
b11111111 1
b0 0
b11111111 /
b11111111 .
b0 -
bx ,
bx +
b11111111 *
0)
b11111111 (
b0 '
0&
0%
b11111111 $
b0 #
bx "
bx !
$end
#5000
08
b1 E
1&
#10000
0&
#15000
b10 E
1&
#20000
0&
#25000
b11 E
1&
#30000
0&
#35000
b100 E
1&
#40000
b10 =
b10 @
b1001 D
b1010001001000000000 C
15
b100000000 7
b100000000 ?
b100000000 *
b100000000 /
b100000000 2
b100000000 3
b100000000 4
0&
b1 #
b1 '
b1 -
b1 0
#45000
b101 E
1&
#50000
0&
#55000
b110 E
1&
#60000
0&
#65000
b111 E
1&
#70000
0&
#75000
b1000 E
1&
#80000
b0 ;
b0 B
b0 <
b0 A
b100 =
b100 @
b1001 D
b10000000000 C
b10 7
b10 ?
05
b10 *
b10 /
b10 2
b10 3
b10 4
0&
b1 $
b1 (
b1 .
b1 1
#85000
b1001 E
1&
#90000
0&
#95000
b1010 E
1&
#100000
0&
#105000
b1011 E
1&
#110000
0&
#115000
b1100 E
1&
#120000
b0 =
b0 @
b1001 D
b0 C
b0 7
b0 ?
b0 *
b0 /
b0 2
b0 3
b0 4
0&
1)
1%
#125000
b1101 E
1&
#130000
0&
#135000
b1110 E
1&
#140000
0&
#145000
b1111 E
1&
#150000
0&
#155000
b10000 E
1&
#160000
0&
b0 $
b0 (
b0 .
b0 1
b0 #
b0 '
b0 -
b0 0
#165000
b10001 E
1&
#170000
0&
#175000
b10010 E
1&
#180000
0&
#185000
b10011 E
1&
#190000
0&
#195000
b10100 E
1&
#200000
b100 =
b100 @
b0 <
b0 A
b1001 D
b10000000000 C
15
b10 7
b10 ?
b111111110 *
b111111110 /
b111111110 2
b111111110 3
b111111110 4
0&
b100 $
b100 (
b100 .
b100 1
b10 #
b10 '
b10 -
b10 0
#205000
b10101 E
1&
#210000
0&
#215000
b10110 E
1&
#220000
0&
#225000
b10111 E
1&
#230000
0&
#235000
b11000 E
1&
#240000
b101 ;
b101 B
b1 <
b1 A
b10 =
b10 @
b1001 D
b1010001001000000000 C
b100000000 7
b100000000 ?
b100000000 *
b100000000 /
b100000000 2
b100000000 3
b100000000 4
0&
0)
0%
b10000000 $
b10000000 (
b10000000 .
b10000000 1
b10000000 #
b10000000 '
b10000000 -
b10000000 0
#245000
b11001 E
1&
#250000
0&
#255000
b11010 E
1&
#260000
0&
#265000
b11011 E
1&
#270000
0&
#275000
b11100 E
1&
#280000
b0 =
b0 @
b1001 D
b1010001000000000000 C
b11111111 7
b11111111 ?
05
b11111111 *
b11111111 /
b11111111 2
b11111111 3
b11111111 4
0&
b0 $
b0 (
b0 .
b0 1
b11111111 #
b11111111 '
b11111111 -
b11111111 0
#285000
b11101 E
1&
#290000
0&
#295000
b11110 E
1&
#300000
0&
#305000
b11111 E
1&
#310000
0&
#315000
b100000 E
1&
#320000
b0 =
b0 @
b1001 D
b1010001000000000000 C
15
b11111111 7
b11111111 ?
b100000001 *
b100000001 /
b100000001 2
b100000001 3
b100000001 4
0&
1)
1%
b11111111 $
b11111111 (
b11111111 .
b11111111 1
b0 #
b0 '
b0 -
b0 0
#325000
b100001 E
1&
#330000
0&
#335000
b100010 E
1&
#340000
0&
#345000
b100011 E
1&
#350000
0&
#355000
b100100 E
1&
#360000
b0 <
b0 A
b1000 =
b1000 @
b1001 D
b1010000100000000000 C
b11111110 7
b11111110 ?
b100000010 *
b100000010 /
b100000010 2
b100000010 3
b100000010 4
0&
b1 #
b1 '
b1 -
b1 0
#365000
b100101 E
1&
#370000
0&
#375000
b100110 E
1&
#380000
0&
#385000
b100111 E
1&
#390000
0&
#395000
b101000 E
1&
